module github.com/codeYann/golang

go 1.19

require (
	github.com/yuin/goldmark v1.4.13 // indirect
	golang.org/x/mod v0.6.0-dev.0.20220419223038-86c51ed26bb4 // indirect
	golang.org/x/net v0.0.0-20220722155237-a158d28d115b // indirect
	golang.org/x/sys v0.0.0-20220722155257-8c9f86f7a55f // indirect
	golang.org/x/tools v0.1.12 // indirect
)
